{
  "status": 1,
  "code": 200,
  "message": "",
  "data": {
    "info": {
      "page": 1,
      "per_page": 6,
      "total": 12,
      "total_pages": 2
    },
    "chat_type": [
      {
        "type" : 1,
        "title" : "notice"
      },
      {
        "type" : 2,
        "title" : "image"
      },
      {
        "type" : 3,
        "title" : "text"
      },
      {
        "type" : 4,
        "title" : "emoji"
      },
      {
        "type" : 5,
        "title" : "sticker"
      }
    ],
    "customer_id" : 1,
    "customer_name": "thinh",
    "data": [
      {
        "user_name": "thinh",
        "message_id": 1,
        "chat_id": 2,
        "chat_type": 1,
        "image": [
          {
            "image_id": 1,
            "image_url": ""
          }
        ],
        "chat_role": "customer",
        "chat_content": "hello",
        "send_time": "2021-02-26 15:30:21.788736",
        "avatar": "https://lh3.googleusercontent.com/ogw/ADGmqu_DZBwanVI4X2Mo0L_8KUzb0Zdbqg7lFDA0fv1vIw=s83-c-mo",
        "last_seen": [
          {
            "user": 1,
            "user_seen_avatar": "https://lh3.googleusercontent.com/ogw/ADGmqu_DZBwanVI4X2Mo0L_8KUzb0Zdbqg7lFDA0fv1vIw=s83-c-mo"
          }
        ]
      }
    ]
  }
}