{
  "status": 1,
  "code": 200,
  "message": "",
  "data": {
    "info": {
      "page": 1,
      "per_page": 6,
      "total": 12,
      "total_pages": 2
    },
    "data": [
      {
        "increase": false,
        "percent": 3.1,
        "reportCount": 450,
        "report_id": 1,
        "report_title": "Bình luận"
      }
    ]
  }
}