{
  "status":1,
  "code":200,
  "message":"",
  "data":{
    "info":{
      "page":1,
      "per_page":6,
      "total":12,
      "total_pages":2
    },
    "filter_type" : [
      {
        "filter_title" : "Hộp thoại chưa đọc",
        "filter_id" : "1",
        "sub_filter" : [
          {
            "sub_filter" : "Khách hàng mới",
            "sub_filter_id" : 1
          }
        ]
      }
    ],
    "data":[
      {
        "user_name":"thinh",
        "message_id":1,
        "seen" : false,
        "content":"hello",
        "last_time":"2021-02-26 15:30:21.788736",
        "user_avatar":"https://lh3.googleusercontent.com/ogw/ADGmqu_DZBwanVI4X2Mo0L_8KUzb0Zdbqg7lFDA0fv1vIw=s83-c-mo",
        "tags":[
          {
            "tag_id":1,
            "tag_title":"Khách hàng mới"
          }
        ],
        "last_reviewer":[
          {
            "reviewer_id":1,
            "reviewer_avatar":"https://lh3.googleusercontent.com/ogw/ADGmqu_DZBwanVI4X2Mo0L_8KUzb0Zdbqg7lFDA0fv1vIw=s83-c-mo"
          }
        ]
      }
    ]
  }
}